…
weather_tpa <- read_csv("https://github.com/reisanar/datasets/raw/master/tpa_weather_16_17.csv")

weather_tpa <- weather_tpa %>% 
  mutate(data_date = make_date(year, month, day)) %>% 
  mutate(data_month = month(data_date, label = TRUE, abbr = FALSE))

weather_tpa
```

```
## # A tibble: 367 x 8
##     year month   day precipitation max_temp min_temp data_date  data_month
##    <dbl> <dbl> <dbl>         <dbl>    <dbl>    <dbl> <date>     <ord>     
##  1  2016     1     1          0          81       70 2016-01-01 January   
##  2  2016     1     2          0          73       59 2016-01-02 January   
##  3  2016     1     3          0.18       61       50 2016-01-03 January   
##  4  2016     1     4          0          66       49 2016-01-04 January   
##  5  2016     1     5          0          68       49 2016-01-05 January   
##  6  2016     1     6          0          67       54 2016-01-06 January   
##  7  2016     1     7          0          72       56 2016-01-07 January   
##  8  2016     1     8          0.54       76       63 2016-01-08 January   
##  9  2016     1     9          0.65       78       62 2016-01-09 January   
## 10  2016     1    10          0          72       56 2016-01-10 January   
## # ... with 357 more rows
```
…
